[
    {
      "_id": "640efa915363fd81a0d5db8e",
      "index": 0,
      "guid": "e3ce1abb-ea8d-480e-bf9b-fed8302d77f8",
      "isActive": false,
      "balance": "$2,165.22",
      "picture": "http://placehold.it/32x32",
      "age": 26,
      "eyeColor": "blue",
      "name": "Odonnell Coleman",
      "gender": "male",
      "company": "GAZAK",
      "email": "odonnellcoleman@gazak.com",
      "phone": "+1 (948) 437-3784",
      "address": "561 Vandalia Avenue, Diaperville, Pennsylvania, 2613",
      "about": "Commodo voluptate tempor deserunt veniam minim. Adipisicing officia sint nostrud exercitation laborum cupidatat esse eiusmod minim culpa cillum. Ex laboris magna elit sunt amet Lorem proident culpa pariatur ea veniam eu veniam. Mollit irure dolore velit Lorem labore. Aute ipsum culpa aute ad anim eu.\r\n",
      "registered": "2021-01-21T09:50:15 -06:-30",
      "latitude": -25.625934,
      "longitude": 166.76072,
      "tags": [
        "quis",
        "reprehenderit",
        "ipsum",
        "adipisicing",
        "occaecat",
        "commodo",
        "aliqua"
      ],
      "friends": [
        {
          "id": 0,
          "name": "Velez Boyd"
        },
        {
          "id": 1,
          "name": "Gutierrez Hines"
        },
        {
          "id": 2,
          "name": "Washington Berg"
        }
      ],
      "greeting": "Hello, Odonnell Coleman! You have 5 unread messages.",
      "favoriteFruit": "apple"
    },
    {
      "_id": "640efa91de982c0529a9b59b",
      "index": 1,
      "guid": "587ccdf8-7b1a-425c-9c07-8d93482fd9f4",
      "isActive": true,
      "balance": "$2,611.92",
      "picture": "http://placehold.it/32x32",
      "age": 40,
      "eyeColor": "green",
      "name": "Cannon Byers",
      "gender": "male",
      "company": "ISOSPHERE",
      "email": "cannonbyers@isosphere.com",
      "phone": "+1 (900) 503-2525",
      "address": "729 Rutland Road, Campo, District Of Columbia, 3073",
      "about": "Adipisicing cupidatat occaecat sint officia laborum nostrud irure veniam. Ullamco sit veniam id veniam occaecat ullamco pariatur non qui eu mollit in. Anim tempor incididunt incididunt eu reprehenderit ipsum aliquip proident Lorem occaecat duis.\r\n",
      "registered": "2017-07-03T04:37:27 -06:-30",
      "latitude": 43.027151,
      "longitude": -137.276971,
      "tags": [
        "nisi",
        "duis",
        "nulla",
        "occaecat",
        "dolor",
        "quis",
        "proident"
      ],
      "friends": [
        {
          "id": 0,
          "name": "Petty Weber"
        },
        {
          "id": 1,
          "name": "Ester Patel"
        },
        {
          "id": 2,
          "name": "Lilia Schneider"
        }
      ],
      "greeting": "Hello, Cannon Byers! You have 10 unread messages.",
      "favoriteFruit": "banana"
    },
    {
      "_id": "640efa91cc0222ff4ad4e36a",
      "index": 2,
      "guid": "9cc4df4a-c0b1-41a2-a3ac-487c3c472466",
      "isActive": true,
      "balance": "$1,640.59",
      "picture": "http://placehold.it/32x32",
      "age": 28,
      "eyeColor": "blue",
      "name": "Roxanne Mccormick",
      "gender": "female",
      "company": "ZILLACTIC",
      "email": "roxannemccormick@zillactic.com",
      "phone": "+1 (816) 439-3143",
      "address": "531 Campus Place, Sunwest, Palau, 4666",
      "about": "Eu sint aliquip commodo in cillum ea aliqua id excepteur. Labore ullamco pariatur labore elit fugiat magna ipsum ullamco sunt eiusmod ut labore. Ea amet est nisi eiusmod. Voluptate veniam quis reprehenderit elit culpa elit adipisicing anim sint laborum Lorem ea. Qui occaecat pariatur aute amet proident deserunt.\r\n",
      "registered": "2021-08-30T01:33:15 -06:-30",
      "latitude": 31.410518,
      "longitude": -8.620406,
      "tags": [
        "non",
        "irure",
        "veniam",
        "minim",
        "sit",
        "laboris",
        "consequat"
      ],
      "friends": [
        {
          "id": 0,
          "name": "Mendoza Sandoval"
        },
        {
          "id": 1,
          "name": "Christine Rivers"
        },
        {
          "id": 2,
          "name": "Wynn Nielsen"
        }
      ],
      "greeting": "Hello, Roxanne Mccormick! You have 9 unread messages.",
      "favoriteFruit": "strawberry"
    },
    {
      "_id": "640efa91a8ff51a02bf81752",
      "index": 3,
      "guid": "9546bf59-1733-4c60-abeb-b9809e50199e",
      "isActive": false,
      "balance": "$3,661.59",
      "picture": "http://placehold.it/32x32",
      "age": 26,
      "eyeColor": "green",
      "name": "Annette Robinson",
      "gender": "female",
      "company": "COMBOGEN",
      "email": "annetterobinson@combogen.com",
      "phone": "+1 (872) 409-3290",
      "address": "330 Irvington Place, Cecilia, Ohio, 3126",
      "about": "Excepteur reprehenderit exercitation sit consectetur sunt do quis exercitation commodo eu pariatur anim. Sunt qui nulla incididunt magna velit aute nulla dolor voluptate sint magna ipsum. Quis laboris qui ex laboris exercitation mollit ipsum minim cupidatat amet et do velit. Esse elit culpa quis ea ad eu dolor sit est dolore. Elit fugiat esse laboris adipisicing et ad cillum proident minim laborum. Lorem eiusmod ipsum minim duis. Dolor fugiat eiusmod excepteur quis ullamco ex dolor fugiat dolore eiusmod consequat dolore voluptate eu.\r\n",
      "registered": "2014-05-20T08:17:30 -06:-30",
      "latitude": 13.791403,
      "longitude": 35.08265,
      "tags": [
        "non",
        "aliqua",
        "anim",
        "amet",
        "sit",
        "sit",
        "ut"
      ],
      "friends": [
        {
          "id": 0,
          "name": "Blanchard Osborn"
        },
        {
          "id": 1,
          "name": "Dora Burks"
        },
        {
          "id": 2,
          "name": "Stacy Flynn"
        }
      ],
      "greeting": "Hello, Annette Robinson! You have 5 unread messages.",
      "favoriteFruit": "apple"
    },
    {
      "_id": "640efa91f648a4de8821c9a9",
      "index": 4,
      "guid": "4b3b0c5b-7fb2-419e-a9cd-973ff41708f6",
      "isActive": false,
      "balance": "$2,987.41",
      "picture": "http://placehold.it/32x32",
      "age": 36,
      "eyeColor": "blue",
      "name": "Debora Rosario",
      "gender": "female",
      "company": "SILODYNE",
      "email": "deborarosario@silodyne.com",
      "phone": "+1 (961) 454-2114",
      "address": "612 Chestnut Street, Forbestown, Texas, 7355",
      "about": "Ipsum officia non minim pariatur sit exercitation culpa. Occaecat voluptate cupidatat laboris non eiusmod cillum id excepteur aliqua consectetur ex ea aliquip cillum. Mollit ut sint occaecat ea magna laborum elit in adipisicing nulla nostrud proident mollit. Laborum ipsum in eiusmod laboris ex nostrud. Anim ea ex sunt id officia nisi ipsum adipisicing in veniam pariatur.\r\n",
      "registered": "2022-10-06T02:10:40 -06:-30",
      "latitude": -49.661465,
      "longitude": 99.138653,
      "tags": [
        "consequat",
        "deserunt",
        "ullamco",
        "amet",
        "reprehenderit",
        "deserunt",
        "qui"
      ],
      "friends": [
        {
          "id": 0,
          "name": "Lucy Owen"
        },
        {
          "id": 1,
          "name": "Clayton Hoffman"
        },
        {
          "id": 2,
          "name": "Haynes Hamilton"
        }
      ],
      "greeting": "Hello, Debora Rosario! You have 6 unread messages.",
      "favoriteFruit": "apple"
    },
    {
      "_id": "640efa91f57b5dfdd662dec8",
      "index": 5,
      "guid": "7048db20-4596-4bc0-9358-45c06df3d551",
      "isActive": true,
      "balance": "$3,932.48",
      "picture": "http://placehold.it/32x32",
      "age": 21,
      "eyeColor": "green",
      "name": "Antonia Curry",
      "gender": "female",
      "company": "DYNO",
      "email": "antoniacurry@dyno.com",
      "phone": "+1 (883) 566-2092",
      "address": "573 Sackett Street, Rosedale, Utah, 8595",
      "about": "Nostrud laborum quis deserunt officia proident. Magna fugiat ullamco elit amet cupidatat reprehenderit incididunt adipisicing nisi. Irure ex culpa duis sunt cillum. Cupidatat Lorem adipisicing cillum duis aliqua velit duis duis velit qui.\r\n",
      "registered": "2023-01-28T02:40:26 -06:-30",
      "latitude": 34.650141,
      "longitude": -9.415361,
      "tags": [
        "labore",
        "pariatur",
        "qui",
        "culpa",
        "ex",
        "occaecat",
        "pariatur"
      ],
      "friends": [
        {
          "id": 0,
          "name": "Jeannine Maynard"
        },
        {
          "id": 1,
          "name": "Zelma Greene"
        },
        {
          "id": 2,
          "name": "Margret Martin"
        }
      ],
      "greeting": "Hello, Antonia Curry! You have 10 unread messages.",
      "favoriteFruit": "strawberry"
    }
  ]